perf_output_ng_1MB_1
perf_output_ng_1MB_2
perf_output_ng_1MB_3
perf_output_ng_1MB_4
perf_output_ng_1MB_5
perf_output_ng_1MB_6
perf_output_ng_1MB_7
perf_output_ng_1MB_8
perf_output_ng_1MB_9
perf_output_ng_1MB_10
perf_output_ng_1MB_11
perf_output_ng_1MB_12
perf_output_ng_1MB_13
perf_output_ng_1MB_14
perf_output_ng_1MB_15
perf_output_ng_1MB_16
perf_output_ng_1MB_17
perf_output_ng_1MB_18
perf_output_ng_1MB_19
perf_output_ng_1MB_20
perf_output_ng_1MB_21
perf_output_ng_1MB_22
perf_output_ng_1MB_23
perf_output_ng_1MB_24
perf_output_ng_1MB_25
perf_output_ng_1MB_26
perf_output_ng_1MB_27
perf_output_ng_1MB_28
perf_output_ng_1MB_29
perf_output_ng_1MB_30
perf_output_ng_1MB_31
perf_output_ng_1MB_32
perf_output_ng_1MB_33
perf_output_ng_1MB_34
perf_output_ng_1MB_35
perf_output_ng_1MB_36
perf_output_ng_1MB_37
perf_output_ng_1MB_38
perf_output_ng_1MB_39
perf_output_ng_1MB_40
perf_output_ng_1GB_1
perf_output_ng_1MB_41
perf_output_ng_1MB_42
perf_output_ng_1MB_43
perf_output_ng_1MB_44
perf_output_ng_1MB_45
perf_output_ng_1MB_46
perf_output_ng_1MB_47
perf_output_ng_1MB_48
perf_output_ng_1MB_49
perf_output_ng_1MB_50
perf_output_ng_1MB_51
perf_output_ng_1MB_52
perf_output_ng_1MB_53
perf_output_ng_1MB_54
perf_output_ng_1MB_55
perf_output_ng_1MB_56
perf_output_ng_1MB_57
perf_output_ng_1MB_58
perf_output_ng_1MB_59
perf_output_ng_1MB_60
perf_output_ng_1MB_61
perf_output_ng_1MB_62
perf_output_ng_1MB_63
perf_output_ng_1MB_64
perf_output_ng_1MB_65
perf_output_ng_1MB_66
perf_output_ng_10MB_1
perf_output_ng_1MB_67
perf_output_ng_1MB_68
perf_output_ng_1GB_2
perf_output_ng_1MB_69
perf_output_ng_1MB_70
perf_output_ng_1MB_71
perf_output_ng_1MB_72
perf_output_ng_1MB_73
perf_output_ng_1MB_74
perf_output_ng_1MB_75
perf_output_ng_1MB_76
perf_output_ng_1MB_77
perf_output_ng_1GB_3
perf_output_ng_1MB_78
perf_output_ng_1MB_79
perf_output_ng_1MB_80
perf_output_ng_1MB_81
perf_output_ng_1MB_82
perf_output_ng_1MB_83
perf_output_ng_1MB_84
perf_output_ng_1MB_85
perf_output_ng_1MB_86
perf_output_ng_1MB_87
perf_output_ng_1MB_88
perf_output_ng_1MB_89
perf_output_ng_1GB_4
perf_output_ng_1MB_90
perf_output_ng_1MB_91
